__________________
Testing:
0) []
[]
1) [1]
["1"]
2) [1, 2, 3]
["1->2","1->3"]
3) [1, 2, 3, 4, null, 5, null, 6, null, 7, null, 8, 9, null, 10, null, null, null, null, 11]
["1->2->4->6->8","1->2->4->6->9","1->3->5->7->10->11"]
4) [1, 2, 3, 4, 5, 6, 7, null, null, 8, null]
["1->2->4","1->2->5->8","1->3->6","1->3->7"]
5) [5, 4, 8, 11, null, 13, 4, 7, 2, null, null, null, 1]
["5->4->11->7","5->4->11->2","5->8->13","5->8->4->1"]
6) [1, 1]
["1->1"]
7) [3,9,20,null,null,15,7]
["3->9","3->20->15","3->20->7"]
8) [1, 2, 3, 4, 5, null, null, 6, null, null, null, 7, 8, 9, null, null, 10, 11]
["1->2->4->6->7->9->11","1->2->4->6->8->10","1->2->5","1->3"]
9) [1, 2, null, 4]
["1->2->4"]
10) [0,null,0,null,0,null,0,null,0,null,0,null,0,null,0,null,0,null,0,null,0,null,0,null,0,null,0,null,0,null,0,null,0,null,0,null,0,null,0,null,0,null,0,null,0,null,0,null,0,null,0,null,0,null,0,null,0,null,0,null,0,null,0,null,0,null,0,null,0,null,0,null,0,null,0,null,0,null,0,null,0,null,0,null,0,null,0,null,0,null,0,null,0,null,0,null,0,null,0,null,0,null,0,null,0,null,0,null,0,null,0,null,0,null,0,null,0,null,0,null,0,null,0,null,0,null,0,null,0,null,0,null,0,null,0,null,0,null,0,null,0,null,0,null,0,null,0,null,0,null,0,null,0,null,0,null,0,null,0,null,0,null,0,null,0,null,0,null,0,null,0,null,0,null,0,null,0,null,0,null,0,null,0,null,0,null,0,null,0,null,0,null,0,null,0,null,0,null,0,null,0,null,0,null,0,null,0,null,0,null,0,null,0,null,0,null,0,null,0,null,0,null,0,null,0,null,0,null,0,null,0,null,0,null,0,null,0,null,0,null,0,null,0,null,0,null,0,null,0,null,0,null,0,null,0,null,0,null,0,null,0,null,0,null,0,null,0,null,0,null,0,null,0,null,0,null,0,null,0,null,0,null,0,null,0,null,0,null,0,null,0,null,0,null,0,null,0,null,0,null,0,null,0,null,0,null,0,null,0,null,0,null,0,null,0,null,0,null,0,null,0,null,0,null,0,null,0,null,0,null,0,null,0,null,0,null,0,null,0,null,0,null,0,null,0,null,0,null,0,null,0,null,0,null,0,null,0,null,0,null,0,null,0,null,0,null,0,null,0,null,0,null,0,null,0,null,0,null,0,null,0,null,0,null,0,null,0,null,0,null,0,null,0,null,0,null,0,null,0,null,0,null,0,null,0,null,0,null,0,null,0,null,0,null,0,null,0,null,0,null,0,null,0,null,0,null,0,null,0,null,0,null,0,null,0,null,0,null,0,null,0,null,0,null,0,null,0,null,0,null,0,null,0,null,0,null,0,null,0,null,0,null,0,null,0,null,0,null,0,null,0,null,0,null,0,null,0,null,0,null,0,null,0,null,0,null,0,null,0,null,0,null,0,null,0,null,0,null,0,null,0,null,0,null,0,null,0,null,0,null,0,null,0,null,0,null,0,null,0,null,0,null,0,null,0,null,0,null,0,null,0,null,0,null,0,null,0,null,0,null,0,null,0,null,0,null,0,null,0,null,0,null,0,null,0,null,0,null,0,null,0,null,0,null,0,null,0,null,0,null,0,null,0,null,0,null,0,null,0,null,0,null,0,null,0,null,0,null,0,null,0,null,0,null,0,null,0,null,0,null,0,null,0,null,0,null,0,null,0,null,0,null,0,null,0,null,0,null,0,null,0,null,0,null,0,null,0,null,0,null,0,null,0,null,0,null,0,null,0,null,0,null,0,null,0,null,0,null,0,null,0,null,0,null,0,null,0,null,0,null,0,null,0,null,0,null,0,null,0,null,0,null,0,null,0,null,0,null,0,null,0,null,0,null,0,null,0,null,0,null,0,null,0,null,0,null,0,null,0,null,0,null,0,null,0,null,0,null,0,null,0,null,0,null,0,null,0,null,0,null,0,null,0,null,0,null,0,null,0,null,0,null,0,null,0,null,0,null,0,null,0,null,0,null,0,null,0,null,0,null,0,null,0,null,0,null,0,null,0,null,0,null,0,null,0,null,0,null,0,null,0,null,0,null,0,null,0,null,0,null,0,null,0,null,0,null,0,null,0,null,0,null,0,null,0,null,0,null,0,null,0,null,0,null,0,null,0,null,0,null,0,null,0,null,0,null,0,null,0,null,0,null,0,null,0,null,0,null,0,null,0,null,0,null,0,null,0,null,0,null,0,null,0,null,0,null,0,null,0,null,0,null,0,null,0,null,0,null,0,null,0,null,0,null,0,null,0,null,0,null,0,null,0,null,0,null,0,null,0,null,0,null,0,null,0,null,0,null,0,null,0,null,0,null,0,null,0,null,0,null,0,null,0,null,0,null,0,null,0,null,0,null,0,null,0,null,0,null,0,null,0,null,0,null,0,null,0,null,0,null,0,null,0,null,0,null,0,null,0,null,0,null,0,null,0,null,0,null,0,null,0,null,0,null,0,null,0,null,0,null,0,null,0,null,0,null,0,null,0,null,0,null,0,null,0,null,0,null,0,null,0,null,0,null,0,null,0,null,0,null,0,null,0,null,0,null,0,null,0,null,0,null,0,null,0,null,0,null,0,null,0,null,0,null,0,null,0,null,0,null,0,null,0,null,0,null,0,null,0,null,0,null,0,null,0,null,0,null,0,null,0,null,0,null,0,null,0,null,0,null,0,null,0,null,0,null,0,null,0,null,0,null,0,null,0,null,0,null,0,null,0,null,0,null,0,null,0,null,0,null,0,null,0,null,0,null,0,null,0,null,0,null,0,null,0,null,0,null,0,null,0,null,0,null,0,null,0,null,0,null,0,null,0,null,0,null,0,null,0,null,0,null,0,null,0,null,0,null,0,null,0,null,0,null,0,null,0,null,0,null,0,null,0,null,0,null,0,null,0,null,0,null,0,null,0,null,0,null,0,null,0,null,0,null,0,null,0,null,0,null,0,null,0,null,0,null,0,null,0,null,0,null,0,null,0,null,0,null,0,null,0,null,0,null,0,null,0,null,0,null,0,null,0,null,0,null,0,null,0,null,0,null,0,null,0,null,0,null,0,null,0,null,0,null,0,null,0,null,0,null,0,null,0,null,0,null,0,null,0,null,0,null,0,null,0,null,0,null,0,null,0,null,0,null,0,null,0,null,0,null,0,null,0,null,0,null,0,null,0,null,0,null,0,null,0,null,0,null,0,null,0,null,0,null,0,null,0,null,0,null,0,null,0,null,0,null,0,null,0,null,0,null,0,null,0,null,0,null,0,null,0,null,0,null,0,null,0,null,0,null,0,null,0,null,0,null,0,null,0,null,0,null,0,null,0,null,0,null,0,null,0,null,0,null,0,null,0,null,0,null,0,null,0,null,0,null,0,null,0,null,0,null,0,null,0,null,0,null,0,null,0,null,0,null,0,null,0,null,0,null,0,null,0,null,0,null,0,null,0,null,0,null,0,null,0,null,0,null,0,null,0,null,0,null,0,null,0,null,0,null,0,null,0,null,0,null,0,null,0,null,0,null,0,null,0,null,0,null,0,null,0,null,0,null,0,null,0,null,0,null,0,null,0,null,0,null,0,null,0,null,0,null,0,null,0,null,0,null,0,null,0,null,0,null,0,null,0,null,0,null,0,null,0,null,0,null,0,null,0,null,0,null,0,null,0,null,0,null,0,null,0,null,0,null,0,null,0,null,0,null,0,null,0,null,0,null,0,null,0,null,0,null,0,null,0,null,0,null,0,null,0,null,0,null,0,null,0,null,0,null,0,null,0,null,0,null,0,null,0,null,0,null,0,null,0,null,0,null,0,null,0,null,0,null,0,null,0,null,0,null,0,null,0,null,0,null,0,null,0,null,0,null,0,null,0,null,0,null,0,null,0,null,0,null,0,null,0,null,0,null,0,null,0,null,0,null,0,null,0,null,0,null,0,null,0,null,0,null,0,null,0,null,0,null,0,null,0,null,0,null,0,null,0,null,0,null,0,null,0,null,0,null,0,null,0,null,0,null,0,null,0,null,0,null,0,null,0,null,0,null,0,null,0,null,0,null,0,null,0,null,0,null,0,null,0,null,0,null,0,null,0,null,0,null,0,null,0,null,0,null,0,null,0,null,0,null,0,null,0,null,0,null,0,null,0,null,0,null,0,null,0,null,0,null,0,null,0,null,0,null,0,null,0,null,0,null,0,null,0,null,0,null,0,null,0,null,0,null,0,null,0,null,0,null,0,null,0,null,0,null,0,null,0,null,0,null,0,null,0,null,0,null,0,null,0,null,0,null,0,null,0,null,0,null,0,null,0,null,0,null,0,null,0,null,0,null,0,null,0,null,0,null,0,null,0,null,0,null,0,null,0,null,0,null,0,null,0,null,0,null,0,null,0,null,0,null,0,null,0,null,0,null,0,null,0,null,0,null,0,null,0,null,0,null,0,null,0,null,0,null,0,null,0,null,0,null,0,null,0,null,0,null,0,null,0,null,0,null,0,null,0,null,0,null,0,null,0,null,0,null,0,null,0,null,0,null,0,null,0,null,0,null,0,null,0,null,0,null,0,null,0,null,0,null,0,null,0,null,0,null,0,null,0,null,0,null,0,null,0,null,0,null,0,null,0,null,0,null,0,null,0,null,0,null,0,null,0,null,0,null,0,null,0,null,0,null,0,null,0,null,0,null,0,null,0,null,0,null,0,null,0,null,0,null,0,null,0,null,0,null,0,null,0,null,0,null,0,null,0,null,0,null,0,null,0,null,0,null,0,null,0,null,0,null,0,null,0,null,0,null,0,null,0,null,0,null,0,null,0,null,0,null,0,null,0,null,0,null,0,null,0,null,0,null,0,null,0,null,0,null,0,null,0,null,0,null,0,null,0,null,0,null,0,null,0,null,0,null,0,null,0,null,0,null,0,null,0,null,0,null,0,null,0,null,0,null,0,null,0,null,0,null,0,null,0,null,0,null,0,null,0,null,0,null,0,null,0,null,0,null,0,null,0,null,0,null,0,null,0,null,0,null,0,null,0,null,0,null,0,null,0,null,0,null,0,null,0,null,0,null,0,null,0,null,0,null,0,null,0,null,0,null,0,null,0,null,0,null,0,null,0,null,0,null,0,null,0,null,0,null,0,null,0,null,0,null,0,null,0,null,0,null,0,null,0,null,0,null,0,null,0,null,0,null,0,null,0,null,0,null,0,null,0,null,0,null,0,null,0,null,0,null,0,null,0,null,0,null,0,null,0,null,0,null,0,null,0,null,0,null,0,null,0,null,0,null,0,null,0,null,0,null,0,null,0,null,0,null,0,null,0,null,0,null,0,null,0,null,0,null,0,null,0,null,0,null,0,null,0,null,0,null,0,null,0,null,0,null,0,null,0,null,0,null,0,null,0,null,0,null,0,null,0,null,0,null,0,null,0,null,0,null,0,null,0,null,0,null,0,null,0,null,0,null,0,null,0,null,0,null,0,null,0,null,0,null,0,null,0,null,0,null,0,null,0,null,0,null,0,null,0,null,0,null,0,null,0,null,0,null,0,null,0,null,0,null,0,null,0,null,0,null,0,null,0,null,0,null,0,null,0,null,0,null,0,null,0,null,0,null,0,null,0,null,0,null,0,null,0,null,0,null,0,null,0,null,0,null,0,null,0,null,0,null,0,null,0,null,0,null,0,null,0,null,0,null,0,null,0,null,0,null,0,null,0,null,0,null,0,null,0,null,0,null,0,null,0,null,0,null,0,null,0,null,0,null,0,null,0,null,0,null,0,null,0,null,0,null,0,null,0,null,0,null,0,null,0,null,0,null,0,null,0,null,0,null,0,null,0,null,0,null,0,null,0,null,0,null,0,null,0,null,0,null,0,null,0,null,0,null,0,null,0,null,0,null,0,null,0,null,0,null,0,null,0,null,0,null,0,null,0,null,0,null,0,null,0,null,0,null,0,null,0,null,0,null,0,null,0,null,0,null,0,null,0,null,0,null,0,null,0,null,0,null,0,null,0,null,0,null,0,null,0,null,0,null,0,null,0,null,0,null,0,null,0,null,0,null,0,null,0,null,0,null,0,null,0,null,0,null,0,null,0,null,0,null,0,null,0,null,0,null,0,null,0,null,0,null,0,null,0,null,0,null,0,null,0,null,0,null,0,null,0,null,0,null,0,null,0,null,0,null,0,null,0,null,0,null,0,null,0,null,0,null,0,null,0,null,0,null,0,null,0,null,0,null,0,null,0,null,0,null,0,null,0,null,0,null,0,null,0,null,0,null,0,null,0,null,0,null,0,null,0,null,0,null,0,null,0,null,0,null,0,null,0,null,0,null,0,null,0,null,0,null,0,null,0,null,0,null,0,null,0,null,0,null,0,null,0,null,0,null,0,null,0,null,0,null,0,null,0,null,0,null,0,null,0,null,0,null,0,null,0,null,0,null,0,null,0,null,0,null,0,null,0,null,0,null,0,null,0,null,0,null,0,null,0,null,0,null,0,null,0,null,0,null,0,null,0,null,0,null,0,null,0,null,0,null,0,null,0,null,0,null,0,null,0,null,0,null,0,null,0,null,0,null,0,null,0,null,0,null,0,null,0,null,0,null,0,null,0,null,0,null,0,null,0,null,0,null,0,null,0,null,0,null,0,null,0,null,0,null,0,null,0,null,0,null,0,null,0,null,0,null,0,null,0,null,0,null,0,null,0,null,0,null,0,null,0,null,0,null,0,null,0,null,0,null,0,null,0,null,0,null,0,null,0,null,0,null,0,null,0,null,0,null,0,null,0,null,0,null,0,null,0,null,0,null,0,null,0,null,0,null,0,null,0,null,0,null,0,null,0,null,0,null,0,null,0,null,0,null,0,null,0,null,0,null,0,null,0,null,0,null,0,null,0,null,0,null,0,null,0,null,0,null,0,null,0,null,0,null,0,null,0,null,0,null,0,null,0,null,0,null,0,null,0,null,0,null,0,null,0,null,0,null,0,null,0,null,0,null,0,null,0,null,0,null,0,null,0,null,0,null,0,null,0,null,0,null,0,null,0,null,0,null,0,null,0,null,0,null,0,null,0,null,0,null,0,null,0,null,0,null,0,null,0,null,0,null,0,null,0,null,0,null,0,null,0,null,0,null,0,null,0,null,0,null,0,null,0,null,0,null,0,null,0,null,0,null,0,null,0,null,0,null,0,null,0,null,0,null,0,null,0,null,0,null,0,null,0,null,0,null,0,null,0,null,0,null,0,null,0,null,0,null,0,null,0,null,0,null,0,null,0,null,0,null,0,null,0,null,0,null,0,null,0,null,0,null,0,null,0,null,0,null,0,null,0,null,0,null,0,null,0,null,0,null,0,null,0,null,0,null,0,null,0,null,0,null,0,null,0,null,0,null,0,null,0,null,0,null,0,null,0,null,0,null,0,null,0,null,0,null,0,null,0,null,0,null,0,null,0,null,0,null,0,null,0,null,0,null,0,null,0,null,0,null,0,null,0,null,0,null,0,null,0,null,0,null,0,null,0,null,0,null,0,null,0,null,0,null,0,null,0,null,0,null,0,null,0,null,0,null,0,null,0,null,0,null,0,null,0,null,0,null,0,null,0,null,0,null,0,null,0,null,0,null,0,null,0,null,0,null,0,null,0,null,0,null,0,null,0,null,0,null,0,null,0,null,0,null,0,null,0,null,0,null,0,null,0,null,0,null,0,null,0,null,0,null,0,null,0,null,0,null,0,null,0,null,0,null,0,null,0,null,0,null,0,null,0,null,0,null,0,null,0,null,0,null,0,null,0,null,0,null,0,null,0,null,0,null,0,null,0,null,0,null,0,null,0,null,0,null,0,null,0,null,0,null,0,null,0,null,0,null,0,null,0,null,0,null,0,null,0,null,0,null,0,null,0,null,0,null,0,null,0,null,0,null,0,null,0,null,0,null,0,null,0,null,0,null,0,null,0,null,0,null,0,null,0,null,0,null,0,null,0,null,0,null,0,null,0,null,0,null,0,null,0,null,0,null,0,null,0,null,0,null,0,null,0,null,0,null,0,null,0,null,0,null,0,null,0,null,0,null,0,null,0,null,0,null,0,null,0,null,0,null,0,null,0,null,0,null,0,null,0,null,0,null,0,null,0,null,0,null,0,null,0,null,0,null,0,null,0,null,0,null,0,null,0,null,0,null,0,null,0,null,0,null,0,null,0,null,0,null,0,null,0,null,0,null,0,null,0,null,0,null,0,null,0,null,0,null,0,null,0,null,0,null,0,null,0,null,0,null,0,null,0,null,0,null,0,null,0,null,0,null,0,null,0,null,0,null,0,null,0,null,0,null,0,null,0,null,0,null,0,null,0,null,0,null,0,null,0,null,0,null,0,null,0,null,0,null,0,null,0,null,0,null,0,null,0,null,0,null,0,null,0,null,0,null,0,null,0,null,0,null,0,null,0,null,0,null,0,null,0,null,0,null,0,null,0,null,0,0]
["0->0->0->0->0->0->0->0->0->0->0->0->0->0->0->0->0->0->0->0->0->0->0->0->0->0->0->0->0->0->0->0->0->0->0->0->0->0->0->0->0->0->0->0->0->0->0->0->0->0->0->0->0->0->0->0->0->0->0->0->0->0->0->0->0->0->0->0->0->0->0->0->0->0->0->0->0->0->0->0->0->0->0->0->0->0->0->0->0->0->0->0->0->0->0->0->0->0->0->0->0->0->0->0->0->0->0->0->0->0->0->0->0->0->0->0->0->0->0->0->0->0->0->0->0->0->0->0->0->0->0->0->0->0->0->0->0->0->0->0->0->0->0->0->0->0->0->0->0->0->0->0->0->0->0->0->0->0->0->0->0->0->0->0->0->0->0->0->0->0->0->0->0->0->0->0->0->0->0->0->0->0->0->0->0->0->0->0->0->0->0->0->0->0->0->0->0->0->0->0->0->0->0->0->0->0->0->0->0->0->0->0->0->0->0->0->0->0->0->0->0->0->0->0->0->0->0->0->0->0->0->0->0->0->0->0->0->0->0->0->0->0->0->0->0->0->0->0->0->0->0->0->0->0->0->0->0->0->0->0->0->0->0->0->0->0->0->0->0->0->0->0->0->0->0->0->0->0->0->0->0->0->0->0->0->0->0->0->0->0->0->0->0->0->0->0->0->0->0->0->0->0->0->0->0->0->0->0->0->0->0->0->0->0->0->0->0->0->0->0->0->0->0->0->0->0->0->0->0->0->0->0->0->0->0->0->0->0->0->0->0->0->0->0->0->0->0->0->0->0->0->0->0->0->0->0->0->0->0->0->0->0->0->0->0->0->0->0->0->0->0->0->0->0->0->0->0->0->0->0->0->0->0->0->0->0->0->0->0->0->0->0->0->0->0->0->0->0->0->0->0->0->0->0->0->0->0->0->0->0->0->0->0->0->0->0->0->0->0->0->0->0->0->0->0->0->0->0->0->0->0->0->0->0->0->0->0->0->0->0->0->0->0->0->0->0->0->0->0->0->0->0->0->0->0->0->0->0->0->0->0->0->0->0->0->0->0->0->0->0->0->0->0->0->0->0->0->0->0->0->0->0->0->0->0->0->0->0->0->0->0->0->0->0->0->0->0->0->0->0->0->0->0->0->0->0->0->0->0->0->0->0->0->0->0->0->0->0->0->0->0->0->0->0->0->0->0->0->0->0->0->0->0->0->0->0->0->0->0->0->0->0->0->0->0->0->0->0->0->0->0->0->0->0->0->0->0->0->0->0->0->0->0->0->0->0->0->0->0->0->0->0->0->0->0->0->0->0->0->0->0->0->0->0->0->0->0->0->0->0->0->0->0->0->0->0->0->0->0->0->0->0->0->0->0->0->0->0->0->0->0->0->0->0->0->0->0->0->0->0->0->0->0->0->0->0->0->0->0->0->0->0->0->0->0->0->0->0->0->0->0->0->0->0->0->0->0->0->0->0->0->0->0->0->0->0->0->0->0->0->0->0->0->0->0->0->0->0->0->0->0->0->0->0->0->0->0->0->0->0->0->0->0->0->0->0->0->0->0->0->0->0->0->0->0->0->0->0->0->0->0->0->0->0->0->0->0->0->0->0->0->0->0->0->0->0->0->0->0->0->0->0->0->0->0->0->0->0->0->0->0->0->0->0->0->0->0->0->0->0->0->0->0->0->0->0->0->0->0->0->0->0->0->0->0->0->0->0->0->0->0->0->0->0->0->0->0->0->0->0->0->0->0->0->0->0->0->0->0->0->0->0->0->0->0->0->0->0->0->0->0->0->0->0->0->0->0->0->0->0->0->0->0->0->0->0->0->0->0->0->0->0->0->0->0->0->0->0->0->0->0->0->0->0->0->0->0->0->0->0->0->0->0->0->0->0->0->0->0->0->0->0->0->0->0->0->0->0->0->0->0->0->0->0->0->0->0->0->0->0->0->0->0->0->0->0->0->0->0->0->0->0->0->0->0->0->0->0->0->0->0->0->0->0->0->0->0->0->0->0->0->0->0->0->0->0->0->0->0->0->0->0->0->0->0->0->0->0->0->0->0->0->0->0->0->0->0->0->0->0->0->0->0->0->0->0->0->0->0->0->0->0->0->0->0->0->0->0->0->0->0->0->0->0->0->0->0->0->0->0->0->0->0->0->0->0->0->0->0->0->0->0->0->0->0->0->0->0->0->0->0->0->0->0->0->0->0->0->0->0->0->0->0->0->0->0->0->0->0->0->0->0->0->0->0->0->0->0->0->0->0->0->0->0->0->0->0->0->0->0->0->0->0->0->0->0->0->0->0->0->0->0->0->0->0->0->0->0->0->0->0->0->0->0->0->0->0->0->0->0->0->0->0->0->0->0->0->0->0->0->0->0->0->0->0->0->0->0->0->0->0->0->0->0->0->0->0->0->0->0->0->0->0->0->0->0->0->0->0->0->0->0->0->0->0->0->0->0->0->0->0->0->0->0->0->0->0->0->0->0->0->0->0->0->0->0->0->0->0->0->0->0->0->0->0->0->0->0->0->0->0->0->0->0->0->0->0->0->0->0->0->0->0->0->0->0->0->0->0->0->0->0->0->0->0->0->0->0->0->0->0->0->0->0->0->0->0->0->0->0->0->0->0->0->0->0->0->0->0->0->0->0->0->0->0->0->0->0->0->0->0->0->0->0->0->0->0->0->0->0->0->0->0->0->0->0->0->0->0->0->0->0->0->0->0->0->0->0->0->0->0->0->0->0->0->0->0->0->0->0->0->0->0->0->0->0->0->0->0->0->0->0->0->0->0->0->0->0->0->0->0->0->0->0->0->0->0->0->0->0->0->0->0->0->0->0->0->0->0->0->0->0->0->0->0->0->0->0->0->0->0->0->0->0->0->0->0->0->0->0->0->0->0->0->0->0->0->0->0->0->0->0->0->0->0->0->0->0->0->0->0->0->0->0->0->0->0->0->0->0->0->0->0->0->0->0->0->0->0->0->0->0->0->0->0->0->0->0->0->0->0->0->0->0->0->0->0->0->0->0->0->0->0->0->0->0->0->0->0->0->0->0->0->0->0->0->0->0->0->0->0->0->0->0->0->0->0->0->0->0->0->0->0->0->0->0->0->0->0->0->0->0->0->0->0->0->0->0->0->0->0->0->0->0->0->0->0->0->0->0->0->0->0->0->0->0->0->0->0->0->0->0->0->0->0->0->0->0->0->0->0->0->0->0->0->0->0->0->0->0->0->0->0->0->0->0->0->0->0->0->0->0->0->0->0->0->0->0->0->0->0->0->0->0->0->0->0->0->0->0->0->0->0->0->0->0->0->0->0->0->0->0->0->0->0->0->0->0->0->0->0->0->0->0->0->0->0->0->0->0->0->0->0->0->0->0->0->0->0->0->0->0->0->0->0->0->0->0->0->0->0->0->0->0->0->0->0->0->0->0->0->0->0->0->0->0->0->0->0->0->0->0->0->0->0->0->0->0->0->0->0->0->0->0->0->0->0->0->0->0->0->0->0->0->0->0->0->0->0->0->0->0->0->0->0->0->0->0->0->0->0->0->0->0->0->0->0->0->0->0->0->0->0->0->0->0->0->0->0->0->0->0->0->0->0->0->0->0->0->0->0->0->0->0->0->0->0->0->0->0->0->0->0->0->0->0->0->0->0->0->0->0->0->0->0->0->0->0->0->0->0->0->0->0->0->0->0->0->0->0->0->0->0->0->0->0->0->0->0->0->0->0->0->0->0->0->0->0->0->0->0->0->0->0->0->0->0->0->0->0->0->0->0->0->0->0->0->0->0->0->0->0->0->0->0->0->0->0->0->0->0->0->0->0->0->0->0->0->0->0->0->0->0->0->0->0->0->0->0->0->0->0->0->0->0->0->0->0->0->0->0->0->0->0->0->0->0->0->0->0->0->0->0->0->0->0->0->0->0->0->0->0->0->0->0->0->0->0->0->0->0->0->0->0->0->0->0->0->0->0->0->0->0->0->0->0->0->0->0->0->0->0->0->0->0->0->0->0->0->0->0->0->0->0->0->0->0->0->0->0->0->0->0->0->0->0->0->0->0->0->0->0->0->0"]
["0->0->0->0->0->0->0->0->0->0->0->0->0->0->0->0->0->0->0->0->0->0->0->0->0->0->0->0->0->0->0->0->0->0->0->0->0->0->0->0->0->0->0->0->0->0->0->0->0->0->0->0->0->0->0->0->0->0->0->0->0->0->0->0->0->0->0->0->0->0->0->0->0->0->0->0->0->0->0->0->0->0->0->0->0->0->0->0->0->0->0->0->0->0->0->0->0->0->0->0->0->0->0->0->0->0->0->0->0->0->0->0->0->0->0->0->0->0->0->0->0->0->0->0->0->0->0->0->0->0->0->0->0->0->0->0->0->0->0->0->0->0->0->0->0->0->0->0->0->0->0->0->0->0->0->0->0->0->0->0->0->0->0->0->0->0->0->0->0->0->0->0->0->0->0->0->0->0->0->0->0->0->0->0->0->0->0->0->0->0->0->0->0->0->0->0->0->0->0->0->0->0->0->0->0->0->0->0->0->0->0->0->0->0->0->0->0->0->0->0->0->0->0->0->0->0->0->0->0->0->0->0->0->0->0->0->0->0->0->0->0->0->0->0->0->0->0->0->0->0->0->0->0->0->0->0->0->0->0->0->0->0->0->0->0->0->0->0->0->0->0->0->0->0->0->0->0->0->0->0->0->0->0->0->0->0->0->0->0->0->0->0->0->0->0->0->0->0->0->0->0->0->0->0->0->0->0->0->0->0->0->0->0->0->0->0->0->0->0->0->0->0->0->0->0->0->0->0->0->0->0->0->0->0->0->0->0->0->0->0->0->0->0->0->0->0->0->0->0->0->0->0->0->0->0->0->0->0->0->0->0->0->0->0->0->0->0->0->0->0->0->0->0->0->0->0->0->0->0->0->0->0->0->0->0->0->0->0->0->0->0->0->0->0->0->0->0->0->0->0->0->0->0->0->0->0->0->0->0->0->0->0->0->0->0->0->0->0->0->0->0->0->0->0->0->0->0->0->0->0->0->0->0->0->0->0->0->0->0->0->0->0->0->0->0->0->0->0->0->0->0->0->0->0->0->0->0->0->0->0->0->0->0->0->0->0->0->0->0->0->0->0->0->0->0->0->0->0->0->0->0->0->0->0->0->0->0->0->0->0->0->0->0->0->0->0->0->0->0->0->0->0->0->0->0->0->0->0->0->0->0->0->0->0->0->0->0->0->0->0->0->0->0->0->0->0->0->0->0->0->0->0->0->0->0->0->0->0->0->0->0->0->0->0->0->0->0->0->0->0->0->0->0->0->0->0->0->0->0->0->0->0->0->0->0->0->0->0->0->0->0->0->0->0->0->0->0->0->0->0->0->0->0->0->0->0->0->0->0->0->0->0->0->0->0->0->0->0->0->0->0->0->0->0->0->0->0->0->0->0->0->0->0->0->0->0->0->0->0->0->0->0->0->0->0->0->0->0->0->0->0->0->0->0->0->0->0->0->0->0->0->0->0->0->0->0->0->0->0->0->0->0->0->0->0->0->0->0->0->0->0->0->0->0->0->0->0->0->0->0->0->0->0->0->0->0->0->0->0->0->0->0->0->0->0->0->0->0->0->0->0->0->0->0->0->0->0->0->0->0->0->0->0->0->0->0->0->0->0->0->0->0->0->0->0->0->0->0->0->0->0->0->0->0->0->0->0->0->0->0->0->0->0->0->0->0->0->0->0->0->0->0->0->0->0->0->0->0->0->0->0->0->0->0->0->0->0->0->0->0->0->0->0->0->0->0->0->0->0->0->0->0->0->0->0->0->0->0->0->0->0->0->0->0->0->0->0->0->0->0->0->0->0->0->0->0->0->0->0->0->0->0->0->0->0->0->0->0->0->0->0->0->0->0->0->0->0->0->0->0->0->0->0->0->0->0->0->0->0->0->0->0->0->0->0->0->0->0->0->0->0->0->0->0->0->0->0->0->0->0->0->0->0->0->0->0->0->0->0->0->0->0->0->0->0->0->0->0->0->0->0->0->0->0->0->0->0->0->0->0->0->0->0->0->0->0->0->0->0->0->0->0->0->0->0->0->0->0->0->0->0->0->0->0->0->0->0->0->0->0->0->0->0->0->0->0->0->0->0->0->0->0->0->0->0->0->0->0->0->0->0->0->0->0->0->0->0->0->0->0->0->0->0->0->0->0->0->0->0->0->0->0->0->0->0->0->0->0->0->0->0->0->0->0->0->0->0->0->0->0->0->0->0->0->0->0->0->0->0->0->0->0->0->0->0->0->0->0->0->0->0->0->0->0->0->0->0->0->0->0->0->0->0->0->0->0->0->0->0->0->0->0->0->0->0->0->0->0->0->0->0->0->0->0->0->0->0->0->0->0->0->0->0->0->0->0->0->0->0->0->0->0->0->0->0->0->0->0->0->0->0->0->0->0->0->0->0->0->0->0->0->0->0->0->0->0->0->0->0->0->0->0->0->0->0->0->0->0->0->0->0->0->0->0->0->0->0->0->0->0->0->0->0->0->0->0->0->0->0->0->0->0->0->0->0->0->0->0->0->0->0->0->0->0->0->0->0->0->0->0->0->0->0->0->0->0->0->0->0->0->0->0->0->0->0->0->0->0->0->0->0->0->0->0->0->0->0->0->0->0->0->0->0->0->0->0->0->0->0->0->0->0->0->0->0->0->0->0->0->0->0->0->0->0->0->0->0->0->0->0->0->0->0->0->0->0->0->0->0->0->0->0->0->0->0->0->0->0->0->0->0->0->0->0->0->0->0->0->0->0->0->0->0->0->0->0->0->0->0->0->0->0->0->0->0->0->0->0->0->0->0->0->0->0->0->0->0->0->0->0->0->0->0->0->0->0->0->0->0->0->0->0->0->0->0->0->0->0->0->0->0->0->0->0->0->0->0->0->0->0->0->0->0->0->0->0->0->0->0->0->0->0->0->0->0->0->0->0->0->0->0->0->0->0->0->0->0->0->0->0->0->0->0->0->0->0->0->0->0->0->0->0->0->0->0->0->0->0->0->0->0->0->0->0->0->0->0->0->0->0->0->0->0->0->0->0->0->0->0->0->0->0->0->0->0->0->0->0->0->0->0->0->0->0->0->0->0->0->0->0->0->0->0->0->0->0->0->0->0->0->0->0->0->0->0->0->0->0->0->0->0->0->0->0->0->0->0->0->0->0->0->0->0->0->0->0->0->0->0->0->0->0->0->0->0->0->0->0->0->0->0->0->0->0->0->0->0->0->0->0->0->0->0->0->0->0->0->0->0->0->0->0->0->0->0->0->0->0->0->0->0->0->0->0->0->0->0->0->0->0->0->0->0->0->0->0->0->0->0->0->0->0->0->0->0->0->0->0->0->0->0->0->0->0->0->0->0->0->0->0->0->0->0->0->0->0->0->0->0->0->0->0->0->0->0->0->0->0->0->0->0->0->0->0->0->0->0->0->0->0->0->0->0->0->0->0->0->0->0->0->0->0->0->0->0->0->0->0->0->0->0->0->0->0->0->0->0->0->0->0->0->0->0->0->0->0->0->0->0->0->0->0->0->0->0->0->0->0->0->0->0->0->0->0->0->0->0->0->0->0->0->0->0->0->0->0->0->0->0->0->0->0->0->0->0->0->0->0->0->0->0->0->0->0->0->0->0->0->0->0->0->0->0->0->0->0->0->0->0->0->0->0->0->0->0->0->0->0->0->0->0->0->0->0->0->0->0->0->0->0->0->0->0->0->0->0->0->0->0->0->0->0->0->0->0->0->0->0->0->0->0->0->0->0->0->0->0->0->0->0->0->0->0->0->0->0->0->0->0->0->0->0->0->0->0->0->0->0->0->0->0->0->0->0->0->0->0->0->0->0->0->0->0->0->0->0->0->0->0->0->0->0->0->0->0->0->0->0->0->0->0->0->0->0->0->0->0->0->0->0->0->0->0->0->0->0->0->0->0->0->0->0->0->0->0->0->0->0->0->0->0->0->0->0->0->0->0->0->0->0->0->0->0->0->0->0->0->0->0->0->0->0->0->0->0->0->0->0->0->0->0->0->0->0->0->0->0->0->0->0->0->0->0->0->0->0->0->0->0->0->0->0->0->0->0->0->0->0->0->0->0->0->0->0"]
11) [1,2,3,null,5]
["1->2->5","1->3"]

__________________
Solutions:

0) recursive, keep a copy of current nodes in each node, beats 19.69%, 4 ms:
/**
 * Definition for a binary tree node.
 * struct TreeNode {
 *     int val;
 *     TreeNode *left;
 *     TreeNode *right;
 *     TreeNode(int x) : val(x), left(NULL), right(NULL) {}
 * };
 */
class Solution {
public:
    vector<string> binaryTreePaths(TreeNode* root) {
        vector<string> res;
        std::string curValues;
        recordPaths(root, res, curValues);
        return res;
    }
private:
    void recordPaths(TreeNode * root, std::vector<std::string> & paths, std::string curValues)
    {
        if (NULL != root)
        {
            stringstream ss;
            ss << root->val;
            curValues += ss.str();
            if (isLeaf(root))
            {
                paths.push_back(curValues);
            }
            else
            {
                curValues += "->";
                recordPaths(root->left, paths, curValues);
                recordPaths(root->right, paths, curValues);
            }
        }
    }
    
    bool isLeaf(const TreeNode * node)
    {
        return (NULL != node) && (NULL == node->left) && (NULL == node->right);
    }
};

__________________
Task:
Given a binary tree, return all root-to-leaf paths.

For example, given the following binary tree:

   1
 /   \
2     3
 \
  5
All root-to-leaf paths are:

["1->2->5", "1->3"]